{
  "horizon_header": {
    "active": true,
    "title": "Políticas de acceso abierto",
    "excerpt": "Una de las fronteras aún desconocidas es el océano. De él sólo conocemos el 5%. Descubrir el resto es la obsesión del profesor de Ingeniería, Giancarlo Troni. Pero la exploración es tan cara y compleja que decidió plantearle el desafío a sus estudiantes y juntos crearon el primer submarino de bajo costo del mundo.",
    "image": "https://picsum.photos/2000/860",
    "tag": {
      "text": "Texto tag",
      "title": "Title tag",
      "url": "#"
    },
    "section_breadcrumbs": {
      "active": true,
      "breadcrumbs": [
        {
          "text": "Repositorio",
          "title": "Repositorio",
          "url": "/"
        },
        {
          "text": "Que es el repositorio",
          "title": "Que es el repositorio",
          "url": "/cover-content"
        },
        {
          "text": "Políticas de acceso abierto",
          "title": "Políticas de acceso abierto",
          "url": "/page-content"
        }
      ]
    }
  },
  "horizon_contents": [
    {
      "active": true,
      "type": "text",
      "title": "",
      "content": "Lorem ipsum dolor sit amet, consectetuer adipiscing elit. Aenean commodo ligula eget dolor. Aenean massa. Cum sociis natoque penatibus et magnis dis parturient montes, nascetur ridiculus mus. Donec quam felis, ultricies nec, pellentesque eu, pretium quis, sem. Nulla consequat massa quis enim. Donec pede justo, fringilla vel, aliquet nec, vulputate eget, arcu. In enim justo, rhoncus ut, imperdiet a, venenatis vitae, justo. Nullam dictum felis eu pede mollis pretium. Integer tincidunt."
    },
    {
      "active": true,
      "type": "image",
      "title": "",
      "content": "https://picsum.photos/1600/900"
    },
    {
      "active": true,
      "type": "text",
      "title": "Una alternativa accesible para mirar el fondo marino",
      "content": "Lorem ipsum dolor sit amet, consectetuer adipiscing elit. Aenean commodo ligula eget dolor. Aenean massa. Cum sociis natoque penatibus et magnis dis parturient montes, nascetur ridiculus mus. Donec quam felis, ultricies nec, pellentesque eu, pretium quis, sem. Nulla consequat massa quis enim. Donec pede justo, fringilla vel, aliquet nec, vulputate eget, arcu. In enim justo, rhoncus ut, imperdiet a, venenatis vitae, justo. Nullam dictum felis eu pede mollis pretium. Integer tincidunt. Lorem ipsum dolor sit amet, consectetuer adipiscing elit. Aenean commodo ligula eget dolor. Aenean massa. Cum sociis natoque penatibus et magnis dis parturient montes, nascetur ridiculus mus. Donec quam felis, ultricies nec, pellentesque eu, pretium quis, sem. Nulla consequat massa quis enim. Donec pede justo, fringilla vel, aliquet nec, vulputate eget, arcu. In enim justo, rhoncus ut, imperdiet a, venenatis vitae, justo. Nullam dictum felis eu pede mollis pretium. Integer tincidunt. Lorem ipsum dolor sit amet, consectetuer adipiscing elit. Aenean commodo ligula eget dolor. Aenean massa. Cum sociis natoque penatibus et magnis dis parturient montes, nascetur ridiculus mus. Donec quam felis, ultricies nec, pellentesque eu, pretium quis, sem. Nulla consequat massa quis enim. Donec pede justo, fringilla vel, aliquet nec, vulputate eget, arcu. In enim justo, rhoncus ut, imperdiet a, venenatis vitae, justo. Nullam dictum felis eu pede mollis pretium. Integer tincidunt."
    },
    {
      "active": true,
      "type": "quote_bordered",
      "title": "",
      "content": "Hemos estado más veces en la Luna o en la montaña más alta del planeta, que en la parte más profunda del océano, donde hemos llegado muy pocas ocasiones"
    },
    {
      "active": true,
      "type": "list_normal",
      "title": "",
      "content": [
        {
          "text": "Lorem ipsum dolor sit amet, consectetur adipisicing elit."
        },
        {
          "text": "Lorem ipsum dolor sit amet, consectetuer adipiscing elit. Aenean commodo ligula eget dolor. Aenean massa. Cum sociis natoque penatibus et magnis dis parturient montes, nascetur ridiculus mus."
        },
        {
          "text": "Lorem ipsum dolor sit amet, consectetur adipisicing elit."
        },
        {
          "text": "Lorem ipsum dolor sit amet, consectetuer adipiscing elit. Aenean commodo ligula eget dolor. Aenean massa. Cum sociis natoque penatibus et magnis dis parturient montes, nascetur ridiculus mus."
        },
        {
          "text": "Lorem ipsum dolor sit amet, consectetuer adipiscing elit. Aenean commodo ligula eget dolor. Aenean massa. Cum sociis natoque penatibus et magnis dis parturient montes, nascetur ridiculus mus."
        },
        {
          "text": "Lorem ipsum dolor sit amet, consectetur adipisicing elit."
        }
      ]
    },
    {
      "active": true,
      "type": "quote",
      "title": "",
      "content": "Hemos estado más veces en la Luna o en la montaña más alta del planeta, que en la parte más profunda del océano, donde hemos llegado muy pocas ocasiones"
    },
    {
      "active": true,
      "type": "video",
      "title": "",
      "content": "http://techslides.com/demos/sample-videos/small.mp4"
    },
    {
      "active": true,
      "type": "text",
      "title": "Una alternativa accesible para mirar el fondo marino",
      "content": "Lorem ipsum dolor sit amet, consectetuer adipiscing elit. Aenean commodo ligula eget dolor. Aenean massa. Cum sociis natoque penatibus et magnis dis parturient montes, nascetur ridiculus mus. Donec quam felis, ultricies nec, pellentesque eu, pretium quis, sem. Nulla consequat massa quis enim. Donec pede justo, fringilla vel, aliquet nec, vulputate eget, arcu. In enim justo, rhoncus ut, imperdiet a, venenatis vitae, justo. Nullam dictum felis eu pede mollis pretium. Integer tincidunt."
    },
    {
      "active": true,
      "type": "list_links",
      "title": "Otros repositorios",
      "content": [
        {
          "icon": "open_in_new",
          "text": "Apollo",
          "title": "Link",
          "url": "#"
        },
        {
          "icon": "open_in_new",
          "text": "Repositorio Universidad de Chile",
          "title": "Link",
          "url": "#"
        },
        {
          "icon": "open_in_new",
          "text": "Academia.edu",
          "title": "Link",
          "url": "#"
        },
        {
          "icon": "open_in_new",
          "text": "Link a otro sitio",
          "title": "Link",
          "url": "#"
        },
        {
          "icon": "open_in_new",
          "text": "Link del link a otro sitio",
          "title": "Link",
          "url": "#"
        },
        {
          "icon": "open_in_new",
          "text": "Link a otro sitio",
          "title": "Link",
          "url": "#"
        }
      ]
    },
    {
      "active": true,
      "type": "list_links",
      "title": "Recursos UC",
      "content": [
        {
          "icon": "open_in_new",
          "text": "Apollo",
          "title": "Link",
          "url": "#"
        },
        {
          "icon": "open_in_new",
          "text": "Repositorio Universidad de Chile",
          "title": "Link",
          "url": "#"
        },
        {
          "icon": "open_in_new",
          "text": "Academia.edu",
          "title": "Link",
          "url": "#"
        },
        {
          "icon": "open_in_new",
          "text": "Link a otro sitio",
          "title": "Link",
          "url": "#"
        },
        {
          "icon": "open_in_new",
          "text": "Link del link a otro sitio",
          "title": "Link",
          "url": "#"
        },
        {
          "icon": "open_in_new",
          "text": "Link a otro sitio",
          "title": "Link",
          "url": "#"
        }
      ]
    },
    {
      "active": true,
      "type": "table",
      "title": "",
      "content": {
        "columns": ["Hora", "Sección"],
        "rows": [
          {
            "hora": "9:00 - 9:30",
            "seccion": "Lorem ipsum dolor sit amet, consectetur adipiscing elit."
          },
          {
            "hora": "9:00 - 9:30",
            "seccion": "Lorem ipsum dolor sit amet, consectetur adipiscing elit. Integer ut justo non eros convallis rhoncus. Nunc sit amet cursus felis. Aliquam ultricies lacus ut mollis placerat."
          },
          {
            "hora": "9:00 - 9:30",
            "seccion": "Lorem ipsum dolor sit amet, consectetur adipiscing elit."
          },
          {
            "hora": "9:00 - 9:30",
            "seccion": "Lorem ipsum dolor sit amet, consectetur adipiscing elit. Integer ut justo non eros convallis rhoncus. Nunc sit amet cursus felis. Aliquam ultricies lacus ut mollis placerat."
          }
        ]
      }
    },
    {
      "active": true,
      "type": "map",
      "title": "Vista de mapa",
      "content": {
        "direccion": "Direccion",
        "lat": -33.4295733,
        "lon": -70.6211627
      }
    }
  ]
}
