{
  "horizon_header": {
    "active": true,
    "title": "Nuestro Equipo",
    "excerpt": "",
    "image": "assets/img/equipo1.jpg",
    "tag": {
      "text": "¿Qué es el repositorio?",
      "title": "Te encuentras en la página Nuestro Equipo de la sección Qué es el repositorio",
      "url": "/content/nuestro-equipo"
    },
    "section_breadcrumbs": {
      "active": true,
      "breadcrumbs": [
        {
          "text": "Inicio",
          "title": "Ir a página de inicio del Repositorio",
          "url": "/"
        },
        {
          "text": "Que es el repositorio",
          "title": "Te encuentras en página Nuestro Equipo de la sección Qué es el repositorio",
          "url": "/content/nuestro-equipo"
        },
        {
          "text": "Nuestro Equipo",
          "title": "Te encuentras en página Nuestro Equipo",
          "url": "/content/nuestro-equipo"
        }
      ]
    }
  },
  "horizon_contents": [
    {
      "active": true,
      "type": "text",
      "title": "",
      "content": "Las labores de desarrollo y mantención del Repositorio UC están a cargo de un equipo multidisciplinario de Bibliotecas UC compuesto por profesionales de las siguientes áreas:"
    },
    {
      "active": false,
      "type": "image",
      "title": "",
      "content": "https://picsum.photos/1600/900"
    },
    {
      "active": false,
      "type": "text",
      "title": "Una alternativa accesible para mirar el fondo marino",
      "content": "Lorem ipsum dolor sit amet, consectetuer adipiscing elit. Aenean commodo ligula eget dolor. Aenean massa. Cum sociis natoque penatibus et magnis dis parturient montes, nascetur ridiculus mus. Donec quam felis, ultricies nec, pellentesque eu, pretium quis, sem. Nulla consequat massa quis enim. Donec pede justo, fringilla vel, aliquet nec, vulputate eget, arcu. In enim justo, rhoncus ut, imperdiet a, venenatis vitae, justo. Nullam dictum felis eu pede mollis pretium. Integer tincidunt. Lorem ipsum dolor sit amet, consectetuer adipiscing elit. Aenean commodo ligula eget dolor. Aenean massa. Cum sociis natoque penatibus et magnis dis parturient montes, nascetur ridiculus mus. Donec quam felis, ultricies nec, pellentesque eu, pretium quis, sem. Nulla consequat massa quis enim. Donec pede justo, fringilla vel, aliquet nec, vulputate eget, arcu. In enim justo, rhoncus ut, imperdiet a, venenatis vitae, justo. Nullam dictum felis eu pede mollis pretium. Integer tincidunt. Lorem ipsum dolor sit amet, consectetuer adipiscing elit. Aenean commodo ligula eget dolor. Aenean massa. Cum sociis natoque penatibus et magnis dis parturient montes, nascetur ridiculus mus. Donec quam felis, ultricies nec, pellentesque eu, pretium quis, sem. Nulla consequat massa quis enim. Donec pede justo, fringilla vel, aliquet nec, vulputate eget, arcu. In enim justo, rhoncus ut, imperdiet a, venenatis vitae, justo. Nullam dictum felis eu pede mollis pretium. Integer tincidunt."
    },
    {
      "active": false,
      "type": "quote_bordered",
      "title": "",
      "content": "Hemos estado más veces en la Luna o en la montaña más alta del planeta, que en la parte más profunda del océano, donde hemos llegado muy pocas ocasiones"
    },
    {
      "active": true,
      "type": "list_normal",
      "title": "",
      "content": [
        {
          "text": "Investigación y publicación"
        },
        {
          "text": "Catalogación y metadatos"
        },
        {
          "text": "Tecnología y desarrollo digital"
        },
        {
          "text": "Experiencia de usuario"
        },
        {
          "text": "Comunicaciones y marketing"
        }
      ]
    },
    {
      "active": true,
      "type": "quote",
      "title": "",
      "content": "La supervisión y política de la plataforma están en línea con lo dictado por la Pontificia Universidad Católica y la Vicerrectoría de Investigación UC."
    },
    {
      "active": false,
      "type": "video",
      "title": "",
      "content": "http://techslides.com/demos/sample-videos/small.mp4"
    },
    {
      "active": false,
      "type": "text",
      "title": "Una alternativa accesible para mirar el fondo marino",
      "content": "Lorem ipsum dolor sit amet, consectetuer adipiscing elit. Aenean commodo ligula eget dolor. Aenean massa. Cum sociis natoque penatibus et magnis dis parturient montes, nascetur ridiculus mus. Donec quam felis, ultricies nec, pellentesque eu, pretium quis, sem. Nulla consequat massa quis enim. Donec pede justo, fringilla vel, aliquet nec, vulputate eget, arcu. In enim justo, rhoncus ut, imperdiet a, venenatis vitae, justo. Nullam dictum felis eu pede mollis pretium. Integer tincidunt."
    },
    {
      "active": false,
      "type": "list_links",
      "title": "Otros repositorios",
      "content": [
        {
          "icon": "open_in_new",
          "text": "Apollo",
          "title": "Link",
          "url": "#"
        },
        {
          "icon": "open_in_new",
          "text": "Repositorio Universidad de Chile",
          "title": "Link",
          "url": "#"
        },
        {
          "icon": "open_in_new",
          "text": "Academia.edu",
          "title": "Link",
          "url": "#"
        },
        {
          "icon": "open_in_new",
          "text": "Link a otro sitio",
          "title": "Link",
          "url": "#"
        },
        {
          "icon": "open_in_new",
          "text": "Link del link a otro sitio",
          "title": "Link",
          "url": "#"
        },
        {
          "icon": "open_in_new",
          "text": "Link a otro sitio",
          "title": "Link",
          "url": "#"
        }
      ]
    },
    {
      "active": false,
      "type": "list_links",
      "title": "Recursos UC",
      "content": [
        {
          "icon": "open_in_new",
          "text": "Apollo",
          "title": "Link",
          "url": "#"
        },
        {
          "icon": "open_in_new",
          "text": "Repositorio Universidad de Chile",
          "title": "Link",
          "url": "#"
        },
        {
          "icon": "open_in_new",
          "text": "Academia.edu",
          "title": "Link",
          "url": "#"
        },
        {
          "icon": "open_in_new",
          "text": "Link a otro sitio",
          "title": "Link",
          "url": "#"
        },
        {
          "icon": "open_in_new",
          "text": "Link del link a otro sitio",
          "title": "Link",
          "url": "#"
        },
        {
          "icon": "open_in_new",
          "text": "Link a otro sitio",
          "title": "Link",
          "url": "#"
        }
      ]
    },
    {
      "active": false,
      "type": "table",
      "title": "",
      "content": {
        "columns": ["Hora", "Sección"],
        "rows": [
          {
            "hora": "9:00 - 9:30",
            "seccion": "Lorem ipsum dolor sit amet, consectetur adipiscing elit."
          },
          {
            "hora": "9:00 - 9:30",
            "seccion": "Lorem ipsum dolor sit amet, consectetur adipiscing elit. Integer ut justo non eros convallis rhoncus. Nunc sit amet cursus felis. Aliquam ultricies lacus ut mollis placerat."
          },
          {
            "hora": "9:00 - 9:30",
            "seccion": "Lorem ipsum dolor sit amet, consectetur adipiscing elit."
          },
          {
            "hora": "9:00 - 9:30",
            "seccion": "Lorem ipsum dolor sit amet, consectetur adipiscing elit. Integer ut justo non eros convallis rhoncus. Nunc sit amet cursus felis. Aliquam ultricies lacus ut mollis placerat."
          }
        ]
      }
    },
    {
      "active": false,
      "type": "map",
      "title": "Vista de mapa",
      "content": {
        "direccion": "Direccion",
        "lat": -33.4295733,
        "lon": -70.6211627
      }
    }
  ]
}
