{
  "horizon_header": {
    "active": true,
    "title": "Ingreso de Artículos",
    "excerpt": "Publicaciones y Propiedad Intelectual e Industrial",
    "section_breadcrumbs": {
      "active": true,
      "breadcrumbs": [
        {
          "text": "Inicio",
          "title": "Inicio",
          "url": "/"
        },
        {
          "text": "Ingresa tu publicación académica",
          "title": "Ingresa tu publicación académica",
          "url": "/datos-investigacion"
        }
      ]
    },
    "section_conditions": {
      "active": false,
      "text": "El documento debe cumplir con las siguientes condiciones:",
      "terms": ["Debe ser generado por un miembro de la Comunidad UC", "Debe ser generado durante su paso por la UC", "<a href='/content/licencia' target='_black'>Debe autorizar la licencia de publicación </a> "]
    },
    "section_upload": {
      "active": false
    }
  },
  "horizon_forms": {
    "active": true,
    "buttons": {
      "save_changes": {
        "text": "Guardar cambios"
      },
      "save_next": {
        "text": "Guardar y siguiente"
      }
    },
    "content": [
      {
        "active": true,
        "title": "Describe tu artículo",
        "sections": [
          {
            "active": true,
            "title": "",
            "input_titulo_investigacion": {
              "label": "Título del artículo",
              "name": "titulo",
              "small": "",
              "placeholder": "Ingresar texto"
            },
            "input_2": {
              "label": "Revista donde está publicada",
              "name": "",
              "small": "",
              "placeholder": "Desplegar lista"
            },
            "input_3": {
              "label": "Número de Revista",
              "name": "",
              "small": "",
              "placeholder": "Ingresar número o fecha"
            },
            "input_4": {
              "label": "Volumen",
              "name": "",
              "small": "",
              "placeholder": "Ingresar número o texto"
            },
            "input_5": {
              "label": "Página de inicio",
              "name": "",
              "small": "",
              "placeholder": "Ingresar número"
            },
            "input_6": {
              "label": "Página de término",
              "name": "",
              "small": "",
              "placeholder": "Ingresar número"
            },
            "input_7": {
              "label": "Año publicación",
              "name": "",
              "small": "",
              "placeholder": "Ingresar número de 4 dígitos"
            },
            "input_8": {
              "label": "DOI",
              "name": "",
              "small": "",
              "placeholder": "Ingresar texto"
            },
            "input_9": {
              "label": "Financiamiento",
              "name": "",
              "small": "",
              "placeholder": "Ingresar texto"
            },
            "input_10": {
              "label": "Otro financiamiento",
              "name": "",
              "small": "",
              "placeholder": "Buscar"
            },
            "indexacion": {
              "label": "Indexación",
              "name": "",
              "small": "",
              "placeholder": "Buscar",
              "options": [
                {
                  "name": "WOS",
                  "text": "WOS"
                },
                {
                  "name": "WOS-ISI",
                  "text": "WOS-ISI"
                },
                {
                  "name": "Scopus",
                  "text": "Scopus"
                },
                {
                  "name": "SciELo",
                  "text": "SciELo"
                },
                {
                  "name": "Latindex",
                  "text": "Latindex"
                },
                {
                  "name": "Dialnet",
                  "text": "Dialnet"
                },
                {
                  "name": "Redalyc",
                  "text": "Redalyc"
                }
              ]
            },
            "input_11": {
              "label": "Otra Indexación",
              "name": "",
              "small": "",
              "placeholder": "Buscar"
            },
            "input_12": {
              "label": "¿El artículo tiene afiliación UC?",
              "name": "",
              "small": "",
              "placeholder": ""
            },
            "input_13": {
              "label": "Url publicación (ej. http://www.dominio.cl)",
              "name": "",
              "small": "",
              "placeholder": "Ingresar Url"
            }
          }
        ]
      },
      {
        "active": true,
        "title": "Autorías",
        "sections": [
          {
            "active": true,
            "title": "",
            "excerpt": "Puede agregar más de un autor con sus datos aosiciados presionando el botón +",
            "nombres": {
              "label": "Primer y segundo nombre del autor",
              "name": "",
              "small": "",
              "placeholder": "Ingresar texto"
            },
            "apellidos": {
              "label": "Primer y segundo apellido del autor",
              "name": "",
              "small": "",
              "placeholder": "Ingresar texto"
            },
            "wos": {
              "label": "WOS",
              "name": "",
              "small": "",
              "placeholder": "Ingresar texto"
            },
            "orcid": {
              "label": "ORCID",
              "name": "",
              "small": "",
              "placeholder": "Ingresar texto"
            },
            "input_15": {
              "label": "Pais",
              "name": "",
              "small": "",
              "placeholder": "Buscar"
            },
            "input_16": {
              "label": "Institución de investigación",
              "name": "",
              "small": "",
              "placeholder": "Buscar"
            },
            "input_17": {
              "label": "Autor UC",
              "name": "",
              "small": "",
              "placeholder": "Buscar"
            },
            "input_18": {
              "label": "Facultad",
              "name": "",
              "small": "",
              "placeholder": "Buscar"
            },
            "input_19": {
              "label": "Unidad académica",
              "name": "",
              "small": "",
              "placeholder": "Buscar"
            },
            "input_20": {
              "label": "Departamento",
              "name": "",
              "small": "",
              "placeholder": "Buscar"
            }
          }
        ]
      },
      {
        "active": true,
        "title": "Subir archivos y envío",
        "sections": [
          {
            "active": true,
            "title": "Sube tu archivo",
            "excerpt": "",
            "input_seleccionar_archivo": {
              "label": "Archivos",
              "boton": "Cargar archivos (peso máx. 1,5GB)",
              "name": "file_upload",
              "small": ""
            },
            "input_tipo_acceso": {
              "label": "Tipo de acceso",
              "name": "select_tipo_acceso",
              "small": "",
              "options": [
                {
                  "value": "public",
                  "text": "Público"
                },
                {
                  "value": "restricted",
                  "text": "Restringido"
                },
                {
                  "value": "embarged",
                  "text": "Embargado"
                }
              ]
            },
            "input_descripcion_archivo": {
              "label": "Descripción del archivo",
              "name": "textarea_descripcion_archivo",
              "small": "",
              "placeholder": "Si lo desea, puede describir brevemente el contenido de este archivo, por ejemplo 'Artículo principal', o 'Lectura de los datos del documento'"
            },
            "input_fecha_embargo": {
              "label": "Fecha de embargo",
              "name": "datepicker_fecha_embargo",
              "small": "Indica la fecha final del embargo si se trata de un ítem con embargo",
              "placeholder": "aaaa/mm/dd"
            }
          }
        ]
      }, 
      {
        "active": true,
        "title": "Resultado de Envío"
      }
    ]
  }
}
