{
  "horizon_header": {
    "active": true
  },
  "horizon_informacion": {
    "active": true,
    "title": "Información",
    "sections": {
      "tags": {
        "active": true,
        "title": "Etiquetas"
      },
      "type": {
        "active": true,
        "title": "Tipo de documento"
      },
      "topics": {
        "active": true,
        "title": "Temática"
      },
      "metadata": {
        "active": true,
        "title": "Mostrar metadatos"
      }
    }
  },
  "horizon_descarga": {
    "active": true,
    "title": "Descargar ficha",
    "others": {
      "active": true,
      "title": "Documentos de este título"
    }
  },
  "horizon_datos": {
    "active": true,
    "title": "Datos investigador",
    "button": {
      "active": false,
      "text": "Contáctanos",
      "url": "#"
    }
  },
  "horizon_content": {
    "active": true,
    "title": "Resumen",
    "excerpt": ""
  },
  "horizon_relacionados": {
    "active": true,
    "title": "Investigaciones relacionadas",
    "excerpt": "",
    "link": {
      "text": "Ver otras investigaciones",
      "title": "Investigacion",
      "url": "#",
      "icon": "arrow_forward"
    }
  },
  "horizon_social": {
    "active": true,
    "title": "",
    "excerpt": "",
    "sections": {
      "like": {
        "active": true,
        "title": "¿Te gusta esta publicación?"
      },
      "share": {
        "active": true,
        "title": "Comparte esta publicación"
      }
    }
  },
  "horizon_formulario_comentario": {
    "active": true,
    "title": "Deja tu comentario",
    "excerpt": "",
    "forms": {
      "textarea": {
        "name": "comment_textarea",
        "placeholder": "Escribe acá tu comentario"
      },
      "button": {
        "name": "comment_button",
        "text": "Comentar"
      },
      "reset": {
        "text": "Comentar de nuevo"
      }
    }
  },
  "horizon_comentarios": {
    "active": true,
    "title": "Comentarios",
    "excerpt": ""
  },
  "horizon_cita": {
    "active": true,
    "title": "¿Cómo citar este documento?",
    "sections": {
      "apa": {
        "active": true,
        "title": "Formato APA"
      },
      "reference": {
        "active": true,
        "title": "En la lista de referencia"
      },
      "in_text": {
        "active": true,
        "title": "En el texto"
      }
    }
  }
}
