{
    "menu-repositorio-uc": [
                    {
                        "sub": null,
                        "name": "Inicio",
                        "title": "Ir al inicio",
                        "link": "/"
                    },
                    {
                    "sub": null,
                    "name": "Qué es SIPA",
                    "title": "Qué es SIPA",
                    "link": "/content/quienes-somos"
                    },
                    {
                        "sub": null,
                        "name": "Contacto",
                        "title": "Contacto",
                        "link": "/contact"
                    },
                    {
                        "sub": null,
                        "name": "Preguntas frecuentes",
                        "title": "Preguntas frecuentes",
                        "link": "/faq"
                    },
                    {
                        "sub": null,
                        "name": "Condiciones del servicio",
                        "title": "Condiciones del servicio",
                        "link": "/content/condiciones-de-uso"
                    }
        
    ]
}